module sawit_pro_exam

go 1.19

require (
	github.com/joho/godotenv v1.5.1
	github.com/labstack/echo/v4 v4.10.2
	github.com/lib/pq v1.10.9
)

require (
	github.com/dgrijalva/jwt-go v3.2.0+incompatible // indirect
	github.com/golang-jwt/jwt v3.2.2+incompatible // indirect
	github.com/labstack/gommon v0.4.0 // indirect
	github.com/mattn/go-colorable v0.1.13 // indirect
	github.com/mattn/go-isatty v0.0.19 // indirect
	github.com/valyala/bytebufferpool v1.0.0 // indirect
	github.com/valyala/fasttemplate v1.2.2 // indirect
	golang.org/x/crypto v0.10.0 // indirect
	golang.org/x/net v0.11.0 // indirect
	golang.org/x/sys v0.9.0 // indirect
	golang.org/x/text v0.10.0 // indirect
	golang.org/x/time v0.3.0 // indirect
)
